{
  "count": 360,
  "next": "https://www.politikon.org.pl/api/events/?page=2&page_size=5",
  "previous": null,
  "results": [
    {
      "id": 236,
      "title": "Tylko polskie piosenki w TOP10 \"Trójki\"",
      "short_title": "Tylko polskie piosenki w TOP10 \"Trójki\"",
      "twitter_tag": "lp3",
      "title_fb_yes": "Tylko polskie piosenki w TOP10 \"Trójki\"",
      "title_fb_no": "Tylko polskie piosenki w TOP10 \"Trójki\"",
      "description": "W pierwszej dziesiątce ostatniego sierpniowego notowania Listy Przebojów (nr 1804) radiowej \"Trójki\" będą wyłącznie utwory polskich wykonawców.\r\n\r\nTu aktualne notowanie: http://lp3.polskieradio.pl/",
      "small_image": "https://politik.s3.amazonaws.com/events_small/przes%C5%82ano_27.5.2016_o_14_30_56.png",
      "big_image": "https://politik.s3.amazonaws.com/events_big/przes%C5%82ano_27.5.2016_o_14_30_56.png",
      "is_featured": true,
      "outcome": 4,
      "outcome_reason": "Piosenka zespołu Metallica na 4. i Joe Bonamassy na 10. miejscu w 1804. notowaniu rozstrzyga zakład na \"NIE\"",
      "created_date": "2016-08-16T18:43:11.295055Z",
      "created_by": 39,
      "estimated_end_date": "2016-08-26T18:40:57Z",
      "end_date": "2016-08-28T12:21:51.255641Z",
      "current_buy_for_price": 20,
      "current_buy_against_price": 80,
      "current_sell_against_price": 77,
      "last_transaction_date": null,
      "Q_for": 6,
      "Q_against": 13,
      "turnover": 19,
      "absolute_price_change": 7,
      "price_change": -7,
      "B": 5.0
    },
    {
      "id": 18,
      "title": "Zamach terrorystyczny w UE.",
      "short_title": "x",
      "twitter_tag": null,
      "title_fb_yes": "x",
      "title_fb_no": "x",
      "description": "W ciągu najbliższych 2 tygodni (do końca 28 marca 2016 r.) dojdzie do zamachu terrorystycznego w stolicy któregoś z państw członkowskich UE. ",
      "small_image": "https://politik.s3.amazonaws.com/events_small/paryz-atak.png",
      "big_image": "https://politik.s3.amazonaws.com/events_big/paryz-atak.png",
      "is_featured": false,
      "outcome": 3,
      "outcome_reason": "x",
      "created_date": "2016-03-13T20:23:34.824073Z",
      "created_by": null,
      "estimated_end_date": "2016-03-27T21:00:00Z",
      "end_date": "2016-04-02T23:41:32.192588Z",
      "current_buy_for_price": 93,
      "current_buy_against_price": 7,
      "current_sell_against_price": 7,
      "last_transaction_date": null,
      "Q_for": 13,
      "Q_against": 0,
      "turnover": 49,
      "absolute_price_change": 3,
      "price_change": 3,
      "B": 5.0
    },
    {
      "id": 28,
      "title": "Adam Z. zostaje oskarżony o morderstwo (lub współudział) Ewy Tylman",
      "short_title": "Adam Z. oskarżony",
      "twitter_tag": null,
      "title_fb_yes": "tak",
      "title_fb_no": "nie",
      "description": "W kwietniu Adam Z. zostaje oskarżony o morderstwo (lub współudział) Ewy Tylman",
      "small_image": "https://politik.s3.amazonaws.com/events_small/462b69e1-7016-4800-9f9e-4b041d8503211.jpg",
      "big_image": "https://politik.s3.amazonaws.com/events_big/462b69e1-7016-4800-9f9e-4b041d8503211.jpg",
      "is_featured": false,
      "outcome": 4,
      "outcome_reason": "",
      "created_date": "2016-03-17T14:53:34.347035Z",
      "created_by": null,
      "estimated_end_date": "2016-04-30T13:50:25Z",
      "end_date": "2016-04-02T23:43:38.421710Z",
      "current_buy_for_price": 55,
      "current_buy_against_price": 45,
      "current_sell_against_price": 40,
      "last_transaction_date": null,
      "Q_for": 4,
      "Q_against": 3,
      "turnover": 17,
      "absolute_price_change": 5,
      "price_change": 5,
      "B": 5.0
    },
    {
      "id": 40,
      "title": "W dniu 18 kwietnia Facebook w Turcji jest oficjalnie zablokowany",
      "short_title": "Blokada Facebooka w Turcji",
      "twitter_tag": null,
      "title_fb_yes": "tak",
      "title_fb_no": "nie",
      "description": "W dniu 18 kwietnia Facebook w Turcji będzie oficjalnie zablokowany",
      "small_image": "https://politik.s3.amazonaws.com/events_small/turkish_flag_facebook1.jpg",
      "big_image": "https://politik.s3.amazonaws.com/events_big/turkish_flag_facebook1.jpg",
      "is_featured": false,
      "outcome": 4,
      "outcome_reason": "",
      "created_date": "2016-04-05T11:38:50.224465Z",
      "created_by": null,
      "estimated_end_date": "2016-04-18T21:00:00Z",
      "end_date": "2016-04-20T14:00:08.024962Z",
      "current_buy_for_price": 45,
      "current_buy_against_price": 55,
      "current_sell_against_price": 50,
      "last_transaction_date": null,
      "Q_for": 5,
      "Q_against": 6,
      "turnover": 23,
      "absolute_price_change": 19,
      "price_change": 19,
      "B": 5.0
    },
    {
      "id": 8,
      "title": "Do końca kwietnia 2016 będziemy świadkami publikacji ważnych teczek dotyczących wpływowej osoby",
      "short_title": "Znów będą teczki!",
      "twitter_tag": null,
      "title_fb_yes": "Będą",
      "title_fb_no": "Nie będą",
      "description": "Do końca kwietnia 2016 będziemy świadkami publikacji ważnych teczek z archiwum SB dotyczących wpływowej osoby, wciąż aktywnej w polityce",
      "small_image": "https://politik.s3.amazonaws.com/events_small/michnik-walesa-kiszczak11.jpg",
      "big_image": "https://politik.s3.amazonaws.com/events_big/7782785-archiwa-ipn-900-6001.jpg",
      "is_featured": true,
      "outcome": 2,
      "outcome_reason": "",
      "created_date": "2016-02-28T20:55:23.509393Z",
      "created_by": null,
      "estimated_end_date": "2016-03-28T19:48:02Z",
      "end_date": "2016-03-13T18:59:35.478099Z",
      "current_buy_for_price": 55,
      "current_buy_against_price": 45,
      "current_sell_against_price": 40,
      "last_transaction_date": null,
      "Q_for": 5,
      "Q_against": 4,
      "turnover": 31,
      "absolute_price_change": 0,
      "price_change": 0,
      "B": 5.0
    }
  ]